…
``` r
# See the result
explanatory_data
```

    ## # A tibble: 33 x 2
    ##    n_convenience house_age_years
    ##            <dbl> <chr>          
    ##  1             0 30 to 45       
    ##  2             0 15 to 30       
    ##  3             0 0 to 15        
    ##  4             1 30 to 45       
    ##  5             1 15 to 30       
    ##  6             1 0 to 15        
    ##  7             2 30 to 45       
    ##  8             2 15 to 30       
    ##  9             2 0 to 15        
    ## 10             3 30 to 45       
    ## # ... with 23 more rows
…
``` r
# Add predictions to the data frame
prediction_data <- explanatory_data %>% 
  mutate(price_twd_msq = predict(mdl_price_vs_both,explanatory_data))
```

``` r
# See the result
prediction_data
```

    ## # A tibble: 33 x 3
    ##    n_convenience house_age_years price_twd_msq
    ##            <int> <chr>                   <dbl>
    ##  1             0 30 to 45                 24.8
    ##  2             0 15 to 30                 23.4
    ##  3             0 0 to 15                  31.1
    ##  4             1 30 to 45                 27.4
    ##  5             1 15 to 30                 26.0
    ##  6             1 0 to 15                  33.7
    ##  7             2 30 to 45                 30.1
    ##  8             2 15 to 30                 28.6
    ##  9             2 0 to 15                  36.3
    ## 10             3 30 to 45                 32.7
    ## # ... with 23 more rows
…
    # Manually calculate the predictions
    price_twd_msq = intercept +slope*n_convenience
  )
```

``` r
# See the results
prediction_data
```

    ## # A tibble: 33 x 4
    ##    n_convenience house_age_years intercept price_twd_msq
    ##            <int> <chr>               <dbl>         <dbl>
    ##  1             0 30 to 45             2.62          2.62
    ##  2             0 15 to 30            24.8          24.8 
    ##  3             0 0 to 15             23.4          23.4 
    ##  4             1 30 to 45             2.62         33.7 
    ##  5             1 15 to 30            24.8          55.9 
    ##  6             1 0 to 15             23.4          54.5 
    ##  7             2 30 to 45             2.62         64.8 
    ##  8             2 15 to 30            24.8          87.0 
    ##  9             2 0 to 15             23.4          85.6 
    ## 10             3 30 to 45             2.62         95.9 
    ## # ... with 23 more rows
…
